ST_558_HW9
…
# A tibble: 2 × 4
  .metric .estimator .estimate .config             
  <chr>   <chr>          <dbl> <chr>               
1 rmse    standard     389.    Preprocessor1_Model1
2 rsq     standard       0.634 Preprocessor1_Model1

As we can see RMSE value we get here is less than CV RMSE of all 3 models. Though R-square value indicates mid-level generalization of data.

final_model <- extract_fit_parsnip(final_fit$.workflow[[1]])

tidy(final_model)

# A tibble: 35 × 5
   term                                     estimate std.error statistic p.value
   <chr>                                       <dbl>     <dbl>     <dbl>   <dbl>
 1 "(Intercept)"                               706.       4.88   145.    0      
 2 "`seasonsSpring_x_holidayNo Holiday`"       -93.5     48.4     -1.93  0.0534 
 3 "`seasonsSummer_x_holidayNo Holiday`"       -44.6    162.      -0.275 0.783  
 4 "`seasonsWinter_x_holidayNo Holiday`"       -41.3     23.1     -1.79  0.0737 
 5 "temperature_x_seasonsSpring"                75.8     41.6      1.82  0.0687 
 6 "temperature_x_seasonsSummer"              -512.     163.      -3.14  0.00171
 7 "temperature_x_seasonsWinter"               -64.0     31.2     -2.05  0.0405 
 8 "`temperature_x_\\`seasonsSpring_x_holi…     28.3     40.9      0.692 0.489  
 9 "`temperature_x_\\`seasonsSummer_x_holi…     22.4    159.       0.140 0.888  
10 "`temperature_x_\\`seasonsWinter_x_holi…    -24.9     29.4     -0.846 0.397  
# ℹ 25 more rows
…
Visualization

Final Coefficient Table

MLR Model

Below shoes coefficient table for MLR Model:

final_model <- extract_fit_parsnip(final_fit$.workflow[[1]])

mlr_coefs <- tidy(final_model)
print(mlr_coefs)

# A tibble: 35 × 5
   term                                     estimate std.error statistic p.value
   <chr>                                       <dbl>     <dbl>     <dbl>   <dbl>
 1 "(Intercept)"                               706.       4.88   145.    0      
 2 "`seasonsSpring_x_holidayNo Holiday`"       -93.5     48.4     -1.93  0.0534 
 3 "`seasonsSummer_x_holidayNo Holiday`"       -44.6    162.      -0.275 0.783  
 4 "`seasonsWinter_x_holidayNo Holiday`"       -41.3     23.1     -1.79  0.0737 
 5 "temperature_x_seasonsSpring"                75.8     41.6      1.82  0.0687 
 6 "temperature_x_seasonsSummer"              -512.     163.      -3.14  0.00171
 7 "temperature_x_seasonsWinter"               -64.0     31.2     -2.05  0.0405 
 8 "`temperature_x_\\`seasonsSpring_x_holi…     28.3     40.9      0.692 0.489  
 9 "`temperature_x_\\`seasonsSummer_x_holi…     22.4    159.       0.140 0.888  
10 "`temperature_x_\\`seasonsWinter_x_holi…    -24.9     29.4     -0.846 0.397  
# ℹ 25 more rows
…
print(lasso_coefs)

# A tibble: 35 × 3
   term                                              estimate  penalty
   <chr>                                                <dbl>    <dbl>
 1 (Intercept)                                          706.  2.65e-10
 2 seasonsSpring_x_holidayNo Holiday                    -92.6 2.65e-10
 3 seasonsSummer_x_holidayNo Holiday                     46.2 2.65e-10
 4 seasonsWinter_x_holidayNo Holiday                    -41.9 2.65e-10
 5 temperature_x_seasonsSpring                           75.8 2.65e-10
 6 temperature_x_seasonsSummer                         -398.  2.65e-10
 7 temperature_x_seasonsWinter                          -64.8 2.65e-10
 8 temperature_x_`seasonsSpring_x_holidayNo Holiday`     29.4 2.65e-10
 9 temperature_x_`seasonsSummer_x_holidayNo Holiday`    -68.4 2.65e-10
10 temperature_x_`seasonsWinter_x_holidayNo Holiday`    -26.7 2.65e-10
# ℹ 25 more rows
…
